<?xml version="1.0" encoding="UTF-8"?>
<svg width="30px" height="31px" viewBox="0 0 30 31" version="1.1" xmlns="http://www.w3.org/2000/svg" xmlns:xlink="http://www.w3.org/1999/xlink">
    <!-- Generator: sketchtool 52.6 (67491) - http://www.bohemiancoding.com/sketch -->
    <title>CB80B88C-1A12-4550-A779-C829E5DCD2C8</title>
    <desc>Created with sketchtool.</desc>
    <g id="UI-KIT" stroke="none" stroke-width="1" fill="none" fill-rule="evenodd">
        <g id="header-footer" transform="translate(-310.000000, -3785.000000)" fill="#FFFFFF" fill-rule="nonzero">
            <g id="footer-2" transform="translate(22.000000, 3551.000000)">
                <g id="2" transform="translate(288.000000, 234.000000)">
                    <path d="M14.9727692,0.698622231 C19.104,0.698622231 22.6213846,2.14092992 25.5221538,5.02416069 C26.9104615,6.41292992 27.966,8.00016069 28.6869231,9.78446838 C29.4073846,11.5692376 29.7687692,13.4633915 29.7687692,15.467853 C29.7687692,17.489853 29.412,19.3844684 28.7007692,21.1507761 C27.9886154,22.9175453 26.9376923,24.4784684 25.5493846,25.8321607 C24.108,27.2560068 22.4727692,28.3466222 20.6436923,29.1026222 C18.8155385,29.8586222 16.9250769,30.2366222 14.9736923,30.2366222 C13.0223077,30.2366222 11.154,29.8636992 9.36923077,29.1155453 C7.58492308,28.3687761 5.98476923,27.2873915 4.56923077,25.8723145 C3.15369231,24.4572376 2.07692308,22.8612376 1.33846154,21.0852376 C0.6,19.3092376 0.230769231,17.4372376 0.230769231,15.467853 C0.230769231,13.5160068 0.604153846,11.6393915 1.35138462,9.83708377 C2.09861538,8.03477608 3.18461538,6.42169915 4.60846154,4.99739146 C7.42153846,2.13216069 10.8761538,0.698622231 14.9727692,0.698622231 Z M15.0263077,3.36262223 C11.6506154,3.36262223 8.81076923,4.54092992 6.50723077,6.89662223 C5.34646154,8.07492992 4.45430769,9.39769915 3.83030769,10.865853 C3.20538462,12.3340068 2.89384615,13.8681607 2.89384615,15.4683145 C2.89384615,17.0509299 3.20538462,18.5763145 3.83030769,20.0435453 C4.45476923,21.5126222 5.34646154,22.8224684 6.50723077,23.9740068 C7.66753846,25.1260068 8.97692308,26.0043145 10.4372308,26.6116992 C11.8961538,27.2181607 13.4261538,27.5213915 15.0263077,27.5213915 C16.6084615,27.5213915 18.1416923,27.2144684 19.6292308,26.5987761 C21.1149231,25.9826222 22.4543077,25.0955453 23.6506154,23.9352376 C25.9536923,21.6847761 27.1047692,18.8629299 27.1047692,15.4687761 C27.1047692,13.8335453 26.8056923,12.2864684 26.208,10.8270838 C25.6112308,9.36769915 24.7403077,8.06708377 23.5984615,6.92339146 C21.2233846,4.54969915 18.3669231,3.36262223 15.0263077,3.36262223 Z M14.8412308,13.0156992 L12.8626154,14.0444684 C12.6512308,13.6055453 12.3923077,13.2972376 12.0849231,13.1213915 C11.7770769,12.9460068 11.4913846,12.857853 11.2273846,12.857853 C9.90923077,12.857853 9.24923077,13.727853 9.24923077,15.4687761 C9.24923077,16.259853 9.41630769,16.8921607 9.75,17.3670838 C10.0841538,17.8420068 10.5766154,18.0796992 11.2273846,18.0796992 C12.0890769,18.0796992 12.6955385,17.6573915 13.0476923,16.8136992 L14.8670769,17.7367761 C14.4803077,18.4581607 13.944,19.0249299 13.2581538,19.4380068 C12.5732308,19.8515453 11.8167692,20.057853 10.9901538,20.057853 C9.67153846,20.057853 8.60723077,19.6540068 7.79861538,18.8444684 C6.99,18.035853 6.58569231,16.9106222 6.58569231,15.4692376 C6.58569231,14.0624684 6.99461538,12.9464684 7.812,12.119853 C8.62938462,11.2936992 9.66230769,10.8801607 10.9112308,10.8801607 C12.7403077,10.8792376 14.0496923,11.5913915 14.8412308,13.0156992 Z M23.3598462,13.0156992 L21.408,14.0444684 C21.1970769,13.6055453 20.9372308,13.2972376 20.6298462,13.1213915 C20.3215385,12.9460068 20.0266154,12.857853 19.7464615,12.857853 C18.4278462,12.857853 17.7678462,13.727853 17.7678462,15.4687761 C17.7678462,16.259853 17.9353846,16.8921607 18.2690769,17.3670838 C18.6027692,17.8420068 19.0947692,18.0796992 19.7464615,18.0796992 C20.6072308,18.0796992 21.2141538,17.6573915 21.5653846,16.8136992 L23.4115385,17.7367761 C23.0076923,18.4581607 22.4621538,19.0249299 21.7772308,19.4380068 C21.0913846,19.8515453 20.3441538,20.057853 19.5355385,20.057853 C18.1989231,20.057853 17.1313846,19.6540068 16.332,18.8444684 C15.5307692,18.035853 15.1310769,16.9106222 15.1310769,15.4692376 C15.1310769,14.0624684 15.5395385,12.9464684 16.3578462,12.119853 C17.1747692,11.2936992 18.2076923,10.8801607 19.4561538,10.8801607 C21.2847692,10.8792376 22.5867692,11.5913915 23.3598462,13.0156992 Z" id="Shape"></path>
                </g>
            </g>
        </g>
    </g>
</svg>